1 10 20
100 200 125
201 210 89
900 1000 174
234 789 171
879 300 179
200 200 27
123 456 144
12 20 21
1 100 119
23 90 116
99 88 119
8 8 4
765 826 153
263 759 171
176 846 171
2533 676 209
1 1 1
1946 3857 238
234 24857 282
28465 12 308
12 14 18
1 6000 238
1 5000 238
1 1000 179
1 2000 182
3 3000 217
86738 95857 333
90782 12 351
12 7000 262
1 11000 268
1 10000 262
1 12000 268
1 13000 268
1 14000 276
1 15000 276
1 16000 276
1 17000 276
1 18000 279
1 19000 279
1 20000 279
1 21000 279
1 25000 282
1 50000 324
1 75000 340
1 100000 351
100000 1 351
50000 1 324
30000 1 308
23457 93746 351
26475 98574 351
1364 8864 262
174 500 144
3720 29775 308
8765 2345 262
1234 4567 238
1946 3857 238
234 24857 282
28465 12 308
12 14 18
1 6000 238
1 5000 238
1 1000 179
1 2000 182
3 3000 217
86738 95857 333
90782 12 351
12 7000 262
1 11000 268
1 10000 262
1 12000 268
1 13000 268
1 14000 276
1 15000 276
1 16000 276
1 17000 276
1 18000 279
1 19000 279
1 20000 279
1 21000 279
1 25000 282
1 50000 324
1 75000 340
1 100000 351
100000 1 351
50000 1 324
30000 1 308
23457 93746 351
26475 98574 351
1364 8864 262
174 500 144
3720 29775 308
8765 2345 262
1234 4567 238
1946 3857 238
234 24857 282
28465 12 308
12 14 18
1 6000 238
1 5000 238
1 1000 179
1 2000 182
3 3000 217
86738 95857 333
90782 12 351
12 7000 262
1 11000 268
1 10000 262
1 12000 268
1 13000 268
1 14000 276
1 15000 276
1 16000 276
1 17000 276
1 18000 279
1 19000 279
1 20000 279
1 21000 279
1 25000 282
1 50000 324
1 75000 340
1 100000 351
100000 1 351
50000 1 324
30000 1 308
23457 93746 351
26475 98574 351
1364 8864 262
174 500 144
3720 29775 308
8765 2345 262
1234 4567 238
