1 10 20
10 1 20
1 1 1
100 200 125
201 210 89
900 1000 174
200 500 144
10 1000 179
567 800 171
500 100000 351
900000 999999 507
849355 763574 525
898718 461431 525
680264 607164 509
77234 421147 449
459962 953474 525
110540 903188 525
965217 819968 525
429002 504716 444
927946 992464 507
383557 693165 509
345446 992708 525
982344 498951 525
66318 833420 509
145948 433928 449
656968 828280 504
668085 953197 525
351235 243285 441
310758 561763 470
938227 80080 525
407421 503398 449
419624 254534 449
744006 194701 509
311254 779803 509
684148 742615 504
800657 200860 509
320542 163404 443
456363 799207 509
139335 723520 509
26875 46302 324
483820 266340 449
488516 314846 449
570469 5767 470
839423 25890 525
71934 660478 509
454421 939262 525
837993 217186 525
317635 130919 443
995377 490396 525
625039 293419 470
84680 694185 509
272776 825419 509
453722 731407 509
992447 291119 525
362926 788147 509
893816 307940 525
174784 279668 443
204942 58069 383
708635 703912 504
764802 95576 509
182884 247053 443
296537 299094 371
527710 233057 470
862515 19235 525
545822 488657 470
459967 696417 509
764068 433558 509
670779 266908 509
155872 677922 509
829274 123355 509
135513 229681 386
290718 424991 449
782756 610647 509
799396 584514 509
747217 169631 509
187876 59191 383
173890 519905 470
812203 71234 509
782574 44878 509
420957 485796 444
108155 220813 386
376000 722292 509
567357 531492 452
780290 607214 509
306377 19051 443
748861 806696 468
6591 118760 354
527521 875333 525
408760 327526 441
288355 800348 509
36082 664425 509
365470 332955 441
482111 220892 449
854148 495779 525
859436 647260 525
430887 491219 444
560802 170117 470
200922 115916 383
312906 76283 443
765854 646269 504
285850 870172 525
961098 307217 525
379130 260759 441
345266 755371 509
814027 272730 509
48741 306332 443
843956 24463 525
767449 689615 504
332430 811704 509
294901 756907 509
169150 584358 470
243031 287876 407
747160 374789 509
807612 136871 509
590999 51474 470
858505 438671 525
35904 960566 525
591528 106911 470
378172 448093 449
517639 727628 509
415593 891575 525
541469 617152 452
842415 192926 525
490498 986675 525
63591 207602 383
448271 928306 525
872507 335522 525
519631 175996 470
679483 383108 509
439903 545258 470
858182 687735 525
989185 124897 525
36558 281385 443
519550 19291 470
261899 624302 470
117804 665904 509
192606 207192 373
711888 484803 509
577443 140019 470
486011 584633 470
75683 210576 383
133805 933749 525
734185 211880 509
833402 96329 509
758500 161194 509
546294 873833 525
704443 242864 509
210950 690918 509
328560 443996 449
6129 725574 509
152174 878386 525
755486 689676 504
749959 712237 424
609483 680076 509
388534 111777 443
910513 632969 525
110223 922777 525
269716 860023 525
264986 321255 407
747559 907561 525
211921 432873 449
